<?xml version="1.0" standalone="no"?>
<!DOCTYPE svg PUBLIC "-//W3C//DTD SVG 20010904//EN"
 "http://www.w3.org/TR/2001/REC-SVG-20010904/DTD/svg10.dtd">
<svg version="1.0" xmlns="http://www.w3.org/2000/svg"
 width="295.000000pt" height="295.000000pt" viewBox="0 0 295.000000 295.000000"
 preserveAspectRatio="xMidYMid meet">
<metadata>
Created by potrace 1.16, written by Peter Selinger 2001-2019
</metadata>
<g transform="translate(0.000000,295.000000) scale(0.100000,-0.100000)"
fill="#000000" stroke="none">
<path d="M1340 2869 c-347 -33 -689 -212 -916 -477 -270 -316 -388 -719 -329
-1127 27 -191 106 -411 194 -540 25 -36 26 -31 5 47 -8 33 -13 65 -11 71 6 14
8 6 32 -93 10 -41 26 -91 36 -111 21 -42 139 -175 139 -157 0 7 9 0 19 -17 18
-29 91 -104 91 -94 0 3 -13 32 -29 65 -32 67 -73 193 -65 205 2 4 0 10 -5 14
-6 3 -8 12 -4 20 3 8 0 15 -6 15 -6 0 -11 7 -11 16 0 9 5 12 12 8 7 -4 8 -3 4
4 -5 9 -13 9 -26 2 -14 -8 -20 -23 -22 -63 l-3 -52 -17 32 c-22 40 -23 55 -2
28 15 -19 16 -18 12 15 -3 19 -8 44 -12 55 -5 11 -4 16 1 10 4 -5 14 -11 20
-13 14 -2 17 10 6 22 -8 8 -9 12 -12 44 -2 16 -2 16 -15 0 -16 -22 -23 -23
-23 -3 0 8 5 11 10 8 10 -6 6 30 -8 74 -4 13 -3 23 2 23 5 0 14 -20 21 -44 12
-46 67 -126 92 -134 11 -4 11 1 -3 22 -10 15 -16 37 -14 49 4 20 4 19 6 -3 0
-15 14 -37 32 -53 34 -30 34 -53 -1 -49 -27 3 -25 0 10 -18 14 -7 22 -9 18 -5
-4 5 -4 13 2 20 11 14 -9 87 -32 114 -9 11 -14 22 -11 25 4 3 -1 6 -10 6 -10
0 -17 8 -17 20 0 15 22 -5 74 -67 104 -124 113 -132 293 -229 76 -41 89 -43
37 -6 -62 45 -181 182 -159 182 12 0 140 -86 154 -103 26 -32 32 -17 6 17 -36
47 -42 95 -17 126 l20 25 31 -30 c18 -16 29 -35 26 -43 -2 -7 -1 -11 4 -8 5 3
11 -1 15 -9 3 -8 1 -17 -4 -20 -6 -4 -10 -12 -10 -18 0 -8 3 -8 9 1 14 22 29
-8 41 -83 21 -138 33 -186 41 -174 7 12 26 201 22 224 -1 6 -4 21 -8 35 -5 21
-4 22 4 5 9 -19 10 -19 10 3 1 12 -5 22 -13 22 -12 0 -66 103 -66 126 0 5 12
-5 27 -22 43 -46 122 -98 258 -168 55 -28 69 -31 179 -34 131 -4 280 16 380
50 56 19 60 20 94 4 19 -9 32 -19 29 -22 -3 -3 -12 -2 -19 2 -18 12 -58 12
-58 1 0 -5 -7 -4 -15 3 -12 10 -16 9 -20 -4 -17 -52 -16 -51 -25 -36 -5 8 -7
17 -5 20 2 3 -5 7 -16 7 -18 2 -18 -1 6 -28 14 -17 25 -38 25 -47 0 -15 2 -15
10 -2 9 13 10 13 10 0 0 -8 -3 -26 -7 -40 l-7 -25 -7 25 c-4 14 -6 -30 -6 -97
2 -102 5 -125 20 -140 16 -16 17 -16 17 10 0 16 -5 26 -12 25 -8 -2 -14 10
-16 30 -2 17 1 32 7 32 6 0 8 -7 5 -15 -4 -8 -3 -15 0 -15 7 0 42 82 39 91 -1
3 8 6 20 5 19 -1 23 -8 27 -51 3 -27 1 -77 -3 -110 -4 -33 -5 -77 -2 -98 4
-30 3 -37 -7 -31 -58 36 -109 73 -138 103 -19 19 -24 26 -11 16 l24 -20 -8 25
c-4 14 -19 50 -33 80 -18 38 -27 77 -30 127 -2 43 -8 70 -14 67 -5 -3 -6 -20
-3 -37 5 -24 4 -28 -4 -17 -6 9 -11 10 -11 3 0 -6 -3 -19 -7 -29 -5 -13 -3
-15 7 -9 9 5 11 4 6 -3 -10 -17 -36 -15 -36 2 0 8 -5 18 -11 22 -9 5 -10 -1
-5 -22 5 -18 4 -25 -2 -19 -13 14 -23 70 -14 81 4 5 -7 -7 -25 -26 -17 -19
-29 -37 -26 -40 2 -3 13 6 23 20 24 30 27 14 4 -19 -13 -17 -24 -22 -46 -19
-16 3 -31 1 -34 -4 -3 -4 10 -8 28 -8 18 0 53 -9 77 -20 53 -25 54 -25 39 0
-7 10 -9 23 -5 27 11 11 28 -19 23 -40 -3 -11 2 -17 12 -17 8 0 12 -3 9 -7 -4
-3 5 -22 20 -42 24 -33 22 -32 -23 11 -59 56 -109 78 -176 78 l-50 0 23 24
c19 19 28 22 44 15 20 -10 20 -10 0 6 -18 14 -22 13 -60 -24 -22 -22 -78 -68
-125 -103 -163 -121 -145 -112 -229 -109 -65 2 -86 -2 -143 -26 l-67 -29 77
-27 c83 -28 190 -57 215 -57 9 0 37 39 68 95 57 104 95 137 193 169 64 22 134
13 146 -18 4 -11 25 -37 46 -56 20 -19 33 -28 29 -20 -5 10 -1 8 13 -4 26 -22
30 -45 5 -25 -36 29 28 -51 69 -85 41 -36 66 -47 52 -24 -5 8 -2 9 10 5 9 -4
54 6 99 22 112 39 136 51 131 66 -3 7 -1 16 5 20 7 3 8 0 5 -9 -3 -9 -2 -16 2
-16 16 0 89 45 87 53 -2 4 -3 44 -3 90 l0 82 -21 -30 c-12 -16 -19 -23 -16
-13 3 9 0 33 -6 55 l-12 38 -7 -45 c-4 -25 -4 15 -2 88 3 74 8 147 11 164 l6
31 18 -36 c11 -20 24 -80 31 -134 11 -97 27 -144 29 -87 3 103 23 212 46 259
18 36 113 135 129 135 7 0 15 -8 19 -17 11 -30 18 -141 10 -160 -5 -10 -7 -24
-6 -31 1 -7 -4 -11 -11 -10 -17 4 -54 -72 -68 -139 -6 -29 -16 -53 -21 -53 -5
0 -9 33 -10 73 l-1 72 -13 -65 c-15 -69 -17 -150 -6 -188 6 -24 6 -24 56 14
124 92 326 318 309 345 -4 7 -3 9 3 6 11 -7 68 81 101 157 20 43 20 45 1 75
-15 26 -16 31 -4 31 8 0 14 -3 14 -7 -4 -22 3 -32 16 -27 18 7 20 50 3 57 -10
4 -10 6 0 6 6 1 12 9 13 19 0 15 1 15 8 -2 9 -24 34 49 60 183 117 579 -141
1174 -641 1479 -87 53 -169 95 -175 88 -3 -2 6 -10 19 -17 45 -23 136 -104
173 -154 46 -61 105 -177 105 -205 0 -12 4 -19 9 -16 4 3 6 -6 3 -19 -2 -14
-6 -25 -8 -25 -2 0 -27 46 -55 103 -68 135 -117 203 -183 255 -56 43 -169 102
-197 102 -8 0 -19 4 -25 9 -38 39 -331 57 -439 28 -73 -20 -164 -67 -202 -104
-18 -18 -35 -33 -38 -33 -36 0 -213 -212 -241 -287 -9 -26 -26 -57 -36 -69
-15 -17 -18 -33 -15 -77 3 -43 0 -62 -15 -84 l-19 -28 6 35 c3 19 7 60 9 90 8
119 42 195 143 320 77 94 193 188 305 245 68 34 72 35 201 37 117 1 124 2 62
8 -90 10 -169 9 -275 -1z m180 -199 c-8 -5 -23 -10 -32 -10 -11 0 -15 -5 -12
-14 3 -8 1 -17 -5 -21 -7 -3 -8 0 -5 10 5 11 2 14 -10 9 -24 -9 -13 -29 15
-27 13 1 53 3 89 4 l65 2 -33 13 c-24 11 -38 12 -53 4 -11 -6 -25 -9 -32 -7
-7 3 0 8 16 12 15 4 27 11 27 15 0 4 11 8 25 8 14 0 25 -4 25 -9 0 -5 9 -9 20
-9 11 0 43 -9 72 -20 30 -11 56 -16 61 -11 5 5 3 12 -4 16 -8 5 -10 4 -5 -3 4
-7 3 -12 -3 -12 -5 0 -13 5 -16 10 -3 6 -15 10 -25 10 -20 0 -36 17 -25 28 3
3 10 1 14 -6 4 -7 12 -12 17 -11 26 5 52 -3 72 -21 23 -22 37 -26 26 -8 -5 8
-2 9 12 3 10 -5 29 -9 41 -9 12 -1 19 -3 17 -5 -2 -3 17 -14 44 -25 26 -12 64
-31 85 -44 22 -14 44 -21 56 -17 15 4 34 -12 89 -75 39 -45 80 -102 92 -128
12 -26 32 -63 46 -82 26 -39 69 -194 58 -212 -17 -27 -33 -140 -29 -210 5
-115 33 -172 188 -376 43 -57 75 -108 71 -114 -5 -7 -3 -8 6 -3 10 6 12 4 6
-11 -4 -10 -4 -15 0 -11 11 11 53 -92 54 -131 0 -55 -42 -124 -91 -150 -42
-22 -36 -15 21 28 14 11 20 20 15 20 -6 0 -33 -19 -60 -43 -73 -62 -127 -84
-261 -106 -65 -11 -120 -18 -122 -16 -2 2 11 44 30 95 31 84 37 93 83 125 72
49 116 54 188 17 31 -16 57 -27 57 -25 0 14 -43 83 -66 107 -64 64 -101 81
-187 83 l-79 2 -49 46 c-55 51 -124 85 -174 85 -18 0 -71 18 -117 40 -83 40
-84 40 -208 41 -141 1 -205 -10 -297 -52 -55 -25 -72 -28 -122 -23 -50 6 -67
3 -117 -20 -33 -15 -68 -36 -80 -47 -12 -11 -54 -28 -95 -38 -100 -23 -145
-47 -199 -101 -44 -44 -89 -114 -79 -124 3 -3 23 1 44 9 62 22 106 18 156 -13
24 -15 52 -32 62 -37 11 -6 25 -27 32 -47 6 -20 22 -53 34 -74 18 -29 19 -39
9 -45 -23 -15 -242 -10 -315 6 -99 23 -120 33 -145 73 -17 28 -22 50 -21 111
0 94 11 150 25 130 7 -10 8 -8 3 8 -10 37 52 152 75 138 3 -2 35 26 71 63 l64
67 -62 -60 c-35 -33 -63 -55 -63 -49 0 5 60 69 134 142 73 72 141 148 151 168
29 61 57 222 52 289 -5 53 -2 68 28 130 18 39 34 63 34 55 1 -9 -4 -21 -11
-28 -9 -9 -9 -15 -1 -23 8 -8 13 1 19 37 7 54 24 92 63 143 14 19 20 31 13 27
-11 -7 -12 -4 -3 13 7 11 15 20 19 18 5 -1 41 28 80 64 52 49 68 68 57 73 -8
3 -15 2 -15 -3 0 -5 -10 -11 -21 -14 -12 -3 -20 -12 -18 -19 2 -7 -15 -32 -38
-56 -56 -55 -55 -42 1 30 42 53 76 83 139 123 42 27 32 11 -14 -20 -35 -25
-38 -30 -23 -38 13 -7 19 -7 22 1 2 7 8 12 13 12 5 0 32 16 61 35 28 19 61 38
74 41 28 7 31 22 7 31 -13 5 -5 12 32 30 52 24 95 32 65 13z m-786 -722 c-63
-123 -293 -357 -408 -415 -36 -18 -30 -12 38 43 28 21 65 56 84 76 19 21 39
35 45 31 6 -4 8 0 4 9 -3 10 6 27 26 45 18 17 56 60 86 97 41 52 56 65 63 54
7 -10 8 -9 4 5 -4 12 7 28 32 52 20 19 38 35 40 35 1 0 -5 -15 -14 -32z m160
-44 c-9 -65 -47 -167 -78 -215 -15 -22 -91 -104 -170 -182 -78 -78 -157 -162
-174 -187 -18 -25 -56 -70 -85 -100 -46 -48 -46 -49 -6 -12 l46 43 -14 -68
c-9 -42 -13 -107 -11 -170 2 -56 0 -96 -4 -90 -4 7 -8 26 -9 42 0 17 -5 41
-10 55 -9 26 -4 -122 7 -212 5 -37 10 -45 23 -41 12 4 13 3 2 -5 -9 -6 -11
-20 -7 -43 5 -23 4 -29 -2 -19 -32 51 -48 315 -26 413 9 35 9 49 0 54 -6 3 -8
3 -4 -2 7 -7 -61 -69 -68 -62 -2 2 6 34 18 72 34 116 130 283 157 277 7 -1 10
2 7 6 -3 5 3 17 14 27 22 20 28 51 8 39 -16 -10 -142 -44 -146 -39 -8 8 134
98 247 156 113 58 130 70 182 134 33 39 69 94 81 123 12 28 23 52 25 52 3 0 1
-21 -3 -46z m1509 -128 c-3 -6 -3 -8 2 -4 5 5 24 -15 42 -43 19 -27 60 -69 90
-92 31 -23 68 -53 82 -67 65 -65 161 -168 161 -174 0 -4 -13 0 -30 9 -31 16
-42 32 -14 21 9 -3 -6 14 -32 38 -26 25 -52 42 -58 39 -5 -4 -7 1 -3 11 6 14
3 17 -8 12 -10 -3 -13 -2 -10 5 4 6 -1 19 -10 29 -15 17 -19 17 -32 4 -14 -13
-18 -13 -42 1 l-26 16 28 -25 c15 -14 33 -23 41 -20 7 3 21 -6 30 -20 9 -15
23 -26 31 -26 8 0 15 -4 15 -9 0 -5 9 -11 21 -14 12 -3 18 -10 15 -15 -3 -6 0
-13 6 -15 9 -4 8 -6 -3 -6 -12 -1 -9 -14 18 -68 43 -88 83 -218 83 -270 0 -26
-6 -48 -17 -59 -16 -16 -18 -14 -28 32 l-11 49 -13 -44 c-7 -23 -10 -49 -7
-56 3 -8 2 -15 -2 -17 -23 -10 -88 -195 -105 -300 -7 -40 -17 -71 -22 -70 -6
2 -15 33 -21 69 -16 97 0 176 47 235 53 68 84 164 84 263 0 99 -5 109 -157
315 -128 174 -164 240 -171 320 l-6 55 19 -49 c11 -27 16 -54 13 -60z m-658
-332 c106 -35 122 -44 191 -108 32 -31 60 -53 63 -50 3 2 -5 25 -18 50 -12 26
-20 49 -17 52 3 2 29 -7 58 -22 65 -32 112 -89 103 -126 -4 -16 -3 -20 3 -12
26 40 41 -126 17 -197 -17 -53 -93 -176 -103 -167 -2 3 0 11 6 19 7 8 8 18 1
27 -7 12 -10 11 -15 -7 -4 -13 -10 -20 -15 -17 -5 3 -1 16 7 30 9 13 15 27 12
29 -3 3 -11 -7 -18 -21 -8 -14 -48 -52 -88 -85 -41 -32 -71 -59 -67 -59 4 0
18 9 33 20 18 15 28 18 36 10 8 -8 6 -15 -8 -26 -11 -8 -16 -14 -10 -14 5 0
23 12 39 26 25 21 26 24 8 19 -26 -7 -36 5 -18 22 10 10 16 9 26 -3 10 -13 15
-13 38 1 15 10 10 1 -14 -20 -64 -57 -171 -118 -195 -110 -11 3 -18 11 -15 16
4 5 -1 9 -10 9 -9 0 -13 -4 -10 -10 4 -6 -6 -7 -25 -4 -25 5 -30 3 -30 -12 0
-16 -2 -17 -10 -4 -8 13 -10 12 -10 -4 0 -14 5 -17 23 -12 12 4 36 9 52 12
l30 5 -31 -14 c-17 -8 -72 -21 -122 -28 -132 -18 -252 2 -379 66 -89 45 -193
119 -193 137 0 5 5 6 12 2 7 -4 8 -3 4 5 -4 6 -11 9 -16 6 -10 -6 -61 72 -89
136 -20 45 -41 176 -22 134 9 -18 10 -18 10 7 1 14 -3 28 -8 30 -16 5 24 107
55 139 41 43 99 71 150 71 56 0 67 -8 62 -43 -6 -39 4 -36 37 11 52 75 145
108 310 109 72 1 107 -4 170 -25z m-815 -164 c-6 -11 -14 -52 -17 -91 -3 -38
-10 -69 -15 -69 -5 0 -36 14 -69 31 -43 22 -69 30 -94 27 l-35 -4 23 24 c32
34 136 94 177 102 43 8 44 7 30 -20z m1355 -9 c17 -4 29 -13 27 -20 -1 -7 2
-10 7 -6 6 3 25 -2 43 -12 l33 -17 -40 -6 c-42 -6 -72 -20 -117 -53 -15 -12
-29 -19 -31 -16 -1 2 -10 32 -18 66 -14 56 -14 63 0 66 23 7 62 6 96 -2z"/>
<path d="M2025 2288 c-22 -5 -53 -19 -69 -33 -16 -13 -34 -22 -40 -18 -6 3 -8
3 -4 -2 4 -4 -2 -19 -12 -33 -11 -13 -20 -31 -20 -38 0 -7 -6 -11 -13 -8 -9 3
-17 -13 -25 -54 -21 -104 -42 -161 -68 -189 -14 -16 -24 -21 -21 -12 4 12 0
15 -17 12 -26 -5 -48 32 -39 67 4 17 2 21 -8 18 -20 -7 -23 -73 -5 -109 9 -17
13 -35 11 -40 -3 -4 0 -11 6 -15 8 -5 9 -3 4 7 -7 12 -6 12 8 1 12 -10 14 -19
6 -38 -17 -47 -10 -136 15 -187 14 -28 22 -58 18 -70 -5 -21 -3 -21 24 5 63
57 240 118 347 118 67 0 45 17 -35 26 l-58 7 45 34 c25 19 45 35 45 37 0 1
-21 0 -47 -4 -38 -6 -53 -15 -82 -49 -55 -63 -67 -56 -63 34 3 51 -2 91 -12
122 -9 26 -16 55 -16 65 0 10 28 59 61 108 56 83 64 90 94 90 29 0 65 -20 65
-37 0 -3 -15 -3 -32 1 -27 4 -29 4 -15 -5 10 -6 27 -9 38 -6 11 3 35 -5 55
-19 20 -14 38 -23 41 -21 2 2 -12 39 -32 82 -19 43 -35 79 -35 82 0 2 10 -1
21 -8 17 -9 20 -8 17 2 -8 24 -67 51 -113 51 -44 1 -44 17 0 18 11 0 27 5 35
10 18 12 -11 11 -75 -2z m-133 -512 c-2 -98 -15 -130 -62 -151 -46 -21 -67
-15 -80 20 -17 45 -12 60 25 74 50 18 69 50 62 109 -4 35 -1 52 11 65 15 17
16 16 30 -15 9 -20 15 -60 14 -102z"/>
<path d="M1158 2268 c-10 -8 -10 -9 2 -5 8 2 24 -4 34 -14 19 -19 19 -19 -21
-19 -30 0 -45 -6 -64 -26 l-24 -26 32 7 c41 8 61 -2 36 -20 -10 -7 -21 -11
-24 -9 -4 2 -13 -4 -20 -14 -13 -15 -12 -16 4 -3 25 20 20 1 -9 -34 -19 -22
-23 -24 -15 -7 7 12 9 22 7 22 -9 0 -38 -62 -32 -68 3 -3 6 0 6 7 0 7 5 9 10
6 6 -3 10 -16 10 -27 0 -21 0 -21 21 -2 12 10 24 18 28 17 3 -1 8 1 11 4 3 4
-1 3 -9 -2 -9 -5 -12 -3 -9 6 3 8 11 13 17 11 7 -1 10 2 6 7 -10 16 33 32 77
29 38 -3 47 -9 99 -71 l57 -67 -26 -63 c-20 -48 -26 -80 -26 -144 -1 -46 -4
-83 -7 -83 -3 0 -28 23 -56 50 -45 44 -56 50 -93 50 l-43 0 35 -24 c19 -13 41
-26 49 -30 8 -3 -12 -4 -43 -2 -37 3 -59 0 -62 -7 -5 -9 -7 -9 -11 -1 -3 7
-16 9 -27 6 -16 -4 -5 -10 42 -23 35 -9 69 -15 77 -12 7 3 13 0 13 -7 0 -7 8
-10 20 -7 11 3 23 1 26 -4 3 -5 16 -9 30 -9 30 0 89 -29 154 -76 47 -34 66
-42 56 -25 -3 5 2 15 11 22 27 23 43 75 50 160 5 64 9 79 22 79 10 0 22 5 29
12 14 14 16 94 2 103 -5 3 -10 -2 -10 -11 0 -10 -7 -26 -16 -35 -16 -18 -18
-18 -44 1 -16 12 -35 39 -44 66 -15 43 -14 45 2 33 9 -7 0 4 -21 26 -21 21
-40 50 -43 64 -14 64 -27 92 -39 87 -7 -2 -23 6 -36 20 -53 56 -170 104 -201
82z m274 -360 c11 -16 14 -41 10 -84 -4 -53 -1 -65 17 -83 11 -11 30 -21 41
-21 27 0 27 -44 0 -87 -23 -39 -41 -41 -82 -11 -46 32 -71 98 -63 161 4 29 12
61 18 72 6 11 12 22 12 25 4 21 18 50 25 50 4 0 14 -10 22 -22z"/>
<path d="M612 553 c6 -26 25 -74 43 -108 17 -33 38 -82 45 -108 10 -38 21 -54
49 -71 62 -39 61 -38 54 -19 -6 16 -5 16 11 4 9 -8 50 -17 91 -20 70 -6 73 -6
58 11 -13 14 -19 16 -32 6 -13 -10 -14 -10 -4 2 10 11 9 17 -4 32 -18 21 -41
25 -26 6 16 -22 9 -43 -12 -40 -11 2 -28 4 -37 5 -9 1 -14 5 -12 9 3 4 -20 21
-50 38 -30 17 -60 38 -68 47 -16 20 -12 18 83 -44 36 -24 71 -43 78 -43 14 0
14 17 0 26 -8 4 -7 9 2 15 10 6 6 8 -11 7 -19 -2 -25 2 -24 15 1 10 -5 17 -16
17 -10 0 -23 7 -30 15 -24 28 -4 25 39 -6 51 -37 179 -89 218 -89 l28 0 -35
21 c-19 12 -68 47 -109 78 -40 31 -87 66 -105 79 -17 13 -30 27 -29 32 2 5 -5
6 -14 3 -11 -4 -14 -3 -9 5 4 7 1 12 -9 12 -18 0 -123 69 -144 94 -23 28 -29
18 -19 -31z"/>
<path d="M1525 210 c-11 -4 -23 -6 -27 -3 -10 5 -58 -27 -58 -39 0 -5 6 -6 13
-2 6 4 3 -2 -7 -14 -20 -23 -32 -30 -21 -12 11 18 -5 11 -40 -17 l-34 -27 32
-14 c27 -11 45 -11 111 -1 68 11 82 11 105 -2 16 -9 41 -14 64 -11 l36 4 -29
42 c-63 88 -99 112 -145 96z"/>
</g>
</svg>
